{
    "key": "group_5ba9fa0f49d60",
    "title": "Site Options",
    "fields": [
        {
            "key": "field_5e9dd6e740c38",
            "label": "Banking Links",
            "name": "",
            "type": "tab",
            "instructions": "",
            "required": 0,
            "conditional_logic": 0,
            "wrapper": {
                "width": "",
                "class": "",
                "id": ""
            },
            "placement": "top",
            "endpoint": 0
        },
        {
            "key": "field_5ba9fa4a6000f",
            "label": "Personal Online Banking Enroll Link",
            "name": "personal_enroll_link",
            "type": "link",
            "instructions": "",
            "required": 0,
            "conditional_logic": 0,
            "wrapper": {
                "width": "",
                "class": "",
                "id": ""
            },
            "return_format": "url"
        },
        {
            "key": "field_5ba9fae560012",
            "label": "Personal Online Banking Password Link",
            "name": "personal_password_link",
            "type": "link",
            "instructions": "",
            "required": 0,
            "conditional_logic": 0,
            "wrapper": {
                "width": "",
                "class": "",
                "id": ""
            },
            "return_format": "url"
        },
        {
            "key": "field_5ba9fa5d60010",
            "label": "Business Online Banking Enroll Link",
            "name": "business_enroll_link",
            "type": "link",
            "instructions": "",
            "required": 0,
            "conditional_logic": 0,
            "wrapper": {
                "width": "",
                "class": "",
                "id": ""
            },
            "return_format": "url"
        },
        {
            "key": "field_5ba9fafc60013",
            "label": "Business Online Banking Password Reset Link",
            "name": "business_password_link",
            "type": "link",
            "instructions": "",
            "required": 0,
            "conditional_logic": 0,
            "wrapper": {
                "width": "",
                "class": "",
                "id": ""
            },
            "return_format": "url"
        },
        {
            "key": "field_5ba9fa1d6000d",
            "label": "Liability Disclosure",
            "name": "liability_disclosure",
            "type": "link",
            "instructions": "",
            "required": 0,
            "conditional_logic": 0,
            "wrapper": {
                "width": "",
                "class": "",
                "id": ""
            },
            "return_format": "url"
        },
        {
            "key": "field_5ba9fa376000e",
            "label": "Privacy Policy",
            "name": "privacy_policy",
            "type": "link",
            "instructions": "",
            "required": 0,
            "conditional_logic": 0,
            "wrapper": {
                "width": "",
                "class": "",
                "id": ""
            },
            "return_format": "url"
        },
        {
            "key": "field_5e9dd6f940c39",
            "label": "Security Notices",
            "name": "",
            "type": "tab",
            "instructions": "",
            "required": 0,
            "conditional_logic": 0,
            "wrapper": {
                "width": "",
                "class": "",
                "id": ""
            },
            "placement": "top",
            "endpoint": 0
        },
        {
            "key": "field_5bc0c47ae2752",
            "label": "External Link Compliance Text",
            "name": "external_link_compliance_text",
            "type": "textarea",
            "instructions": "THIS APPLIES TO ALL EXTERNAL LINKS.\r\nUse this to set the popup text for all external links across the website. Note: no formatting can be applied to this text.",
            "required": 0,
            "conditional_logic": 0,
            "wrapper": {
                "width": "",
                "class": "",
                "id": ""
            },
            "default_value": "",
            "placeholder": "",
            "maxlength": "",
            "rows": 3,
            "new_lines": ""
        },
        {
            "key": "field_5bc0c4e0e2753",
            "label": "PDF Security Notice Text",
            "name": "pdf_security_notice_text",
            "type": "textarea",
            "instructions": "THIS APPLIES TO ALL PDF SECURITY LINKS.\r\nUse this to set the popup text for all secure PDF links across the website. Note: no formatting can be applied to this text.",
            "required": 0,
            "conditional_logic": 0,
            "wrapper": {
                "width": "",
                "class": "",
                "id": ""
            },
            "default_value": "",
            "placeholder": "",
            "maxlength": "",
            "rows": 3,
            "new_lines": ""
        },
        {
            "key": "field_5e4577b705d22",
            "label": "Debit Application Security Notice Text",
            "name": "debit_application_security_notice_text",
            "type": "textarea",
            "instructions": "",
            "required": 0,
            "conditional_logic": 0,
            "wrapper": {
                "width": "",
                "class": "",
                "id": ""
            },
            "default_value": "",
            "placeholder": "",
            "maxlength": "",
            "rows": 3,
            "new_lines": ""
        },
        {
            "key": "field_5e4c48e3af7d3",
            "label": "Forms Page Security Notice Text",
            "name": "forms_page_security_notice_text",
            "type": "textarea",
            "instructions": "This applies to all PDF's on the Forms page only.",
            "required": 0,
            "conditional_logic": 0,
            "wrapper": {
                "width": "",
                "class": "",
                "id": ""
            },
            "default_value": "",
            "placeholder": "",
            "maxlength": "",
            "rows": 3,
            "new_lines": ""
        },
        {
            "key": "field_5e9dd70b40c3a",
            "label": "Announcements Bar",
            "name": "",
            "type": "tab",
            "instructions": "",
            "required": 0,
            "conditional_logic": 0,
            "wrapper": {
                "width": "",
                "class": "",
                "id": ""
            },
            "placement": "top",
            "endpoint": 0
        },
        {
            "key": "field_5c76aec530e2b",
            "label": "Announcements Bar On \/ Off",
            "name": "show_announcements",
            "type": "true_false",
            "instructions": "",
            "required": 0,
            "conditional_logic": 0,
            "wrapper": {
                "width": "",
                "class": "",
                "id": ""
            },
            "message": "",
            "default_value": 0,
            "ui": 1,
            "ui_on_text": "On",
            "ui_off_text": "Off"
        },
        {
            "key": "field_5c76b8bfd0762",
            "label": "Announcement Title",
            "name": "announcement_title",
            "type": "text",
            "instructions": "Example: \"Bank Hours Update\"",
            "required": 0,
            "conditional_logic": [
                [
                    {
                        "field": "field_5c76aec530e2b",
                        "operator": "==",
                        "value": "1"
                    }
                ]
            ],
            "wrapper": {
                "width": "",
                "class": "",
                "id": ""
            },
            "default_value": "",
            "placeholder": "",
            "prepend": "",
            "append": "",
            "maxlength": 25
        },
        {
            "key": "field_5c76b905d0763",
            "label": "Announcement Message",
            "name": "announcement_message",
            "type": "text",
            "instructions": "Example: \"We will be closed Monday in honor of Veteran's Day.\"",
            "required": 0,
            "conditional_logic": [
                [
                    {
                        "field": "field_5c76aec530e2b",
                        "operator": "==",
                        "value": "1"
                    }
                ]
            ],
            "wrapper": {
                "width": "",
                "class": "",
                "id": ""
            },
            "default_value": "",
            "placeholder": "",
            "prepend": "",
            "append": "",
            "maxlength": 100
        },
        {
            "key": "field_5e9dd74740c3b",
            "label": "Bar Color Picker",
            "name": "bar_color_picker",
            "type": "color_picker",
            "instructions": "",
            "required": 0,
            "conditional_logic": 0,
            "wrapper": {
                "width": "",
                "class": "",
                "id": ""
            },
            "default_value": "#137BC0"
        }
    ],
    "location": [
        [
            {
                "param": "options_page",
                "operator": "==",
                "value": "fsb-site-options"
            }
        ]
    ],
    "menu_order": 0,
    "position": "normal",
    "style": "default",
    "label_placement": "top",
    "instruction_placement": "label",
    "hide_on_screen": "",
    "active": 1,
    "description": "",
    "modified": 1587402619
}