{
    "key": "group_5b91c7c726def",
    "title": "Icon Picker",
    "fields": [
        {
            "key": "field_5b91c7d887e28",
            "label": "Icon",
            "name": "icon",
            "type": "select",
            "instructions": "",
            "required": 0,
            "conditional_logic": 0,
            "wrapper": {
                "width": "",
                "class": "",
                "id": ""
            },
            "choices": {
                "piggybank": "Piggy Bank",
                "chart": "Chart",
                "pdf": "PDF Document",
                "ach-origination": "ACH Origination",
                "apply-for-a-loan": "Apply for a Loan",
                "business-online-banking": "Business Online Banking",
                "check-balances": "Check Balances",
                "complete-application": "Complete Application",
                "debit-card": "Debit Card",
                "enroll-online-banking": "Enroll Online Banking",
                "estatements": "E-Statements",
                "outgoing-cell-call": "Outgoing Phone Call",
                "incoming-cell-call": "Incoming Phone Call",
                "interest-bearing": "Interest Bearing",
                "merchant-capture": "Merchant Capture",
                "mobile-banking": "Mobile Banking",
                "online-banking": "Online Banking",
                "save-piggy": "Piggy Bank with Coins"
            },
            "default_value": [],
            "allow_null": 0,
            "multiple": 0,
            "ui": 0,
            "return_format": "value",
            "ajax": 0,
            "placeholder": ""
        }
    ],
    "location": [
        [
            {
                "param": "post_type",
                "operator": "==",
                "value": "post"
            }
        ]
    ],
    "menu_order": 0,
    "position": "normal",
    "style": "default",
    "label_placement": "top",
    "instruction_placement": "label",
    "hide_on_screen": "",
    "active": 0,
    "description": "",
    "modified": 1539023094
}