{
    "key": "group_5ba07f241da8e",
    "title": "Footer CTA Link",
    "fields": [
        {
            "key": "field_5ba07f2bf4cc0",
            "label": "CTA Button",
            "name": "link",
            "type": "link",
            "instructions": "\"Link Text\" will be used as the button text.",
            "required": 0,
            "conditional_logic": 0,
            "wrapper": {
                "width": "",
                "class": "",
                "id": ""
            },
            "return_format": "array"
        },
        {
            "key": "field_5bc0c11d03ec5",
            "label": "PDF Notice",
            "name": "pdf_notice",
            "type": "true_false",
            "instructions": "Should we show the PDF warning popup notice for this link?",
            "required": 0,
            "conditional_logic": 0,
            "wrapper": {
                "width": "",
                "class": "",
                "id": ""
            },
            "message": "",
            "default_value": 0,
            "ui": 1,
            "ui_on_text": "",
            "ui_off_text": ""
        }
    ],
    "location": [
        [
            {
                "param": "post_type",
                "operator": "==",
                "value": "footer_cta"
            }
        ]
    ],
    "menu_order": 0,
    "position": "normal",
    "style": "default",
    "label_placement": "top",
    "instruction_placement": "label",
    "hide_on_screen": "",
    "active": 1,
    "description": "",
    "modified": 1539359078
}