<svg width="51px" height="64px" viewBox="0 0 51 64" version="1.1" xmlns="http://www.w3.org/2000/svg" xmlns:xlink="http://www.w3.org/1999/xlink">
    <!-- Generator: Sketch 52.1 (67048) - http://www.bohemiancoding.com/sketch -->
    <title></title>
    <desc></desc>
    <defs>
        <polygon id="path-1" points="0.0001 0.3836 50.3621 0.3836 50.3621 64 0.0001 64"></polygon>
        <polygon id="path-3" points="0 64 50.363 64 50.363 0.383 0 0.383"></polygon>
    </defs>
    <g id="Wireframes" stroke="none" stroke-width="1" fill="none" fill-rule="evenodd">
        <g id="Group-14" transform="translate(0.000000, -1.000000)">
            <polygon id="Fill-1" fill="#0B3B60" points="7.952 11.6026 21.205 11.6026 21.205 8.9516 7.952 8.9516"></polygon>
            <polygon id="Fill-2" fill="#0B3B60" points="7.952 16.9036 10.602 16.9036 10.602 14.2536 7.952 14.2536"></polygon>
            <polygon id="Fill-3" fill="#0B3B60" points="13.253 16.9036 15.903 16.9036 15.903 14.2536 13.253 14.2536"></polygon>
            <g id="Group-13" transform="translate(0.000000, 0.616600)">
                <g id="Group-6">
                    <mask id="mask-2" fill="white">
                        <use xlink:href="#path-1"></use>
                    </mask>
                    <g id="Clip-5"></g>
                    <path d="M47.7121,60.0236 C47.7121,60.7556 47.1191,61.3496 46.3861,61.3496 L3.9761,61.3496 C3.2441,61.3496 2.6501,60.7556 2.6501,60.0236 L2.6501,4.3596 C2.6501,3.6276 3.2441,3.0336 3.9761,3.0336 L37.1091,3.0336 L37.1091,9.6606 C37.1091,11.8566 38.8891,13.6366 41.0851,13.6366 L43.7361,13.6366 L43.7361,10.9856 L41.0851,10.9856 C40.3531,10.9856 39.7601,10.3926 39.7601,9.6606 L39.7601,4.9086 L47.7121,12.8596 L47.7121,60.0236 Z M49.9741,11.3746 L39.3721,0.7716 C39.1231,0.5226 38.7861,0.3836 38.4351,0.3836 L3.9761,0.3836 C1.7801,0.3836 0.0001,2.1636 0.0001,4.3596 L0.0001,60.0236 C0.0001,62.2196 1.7801,64.0006 3.9761,64.0006 L46.3861,64.0006 C48.5831,64.0006 50.3621,62.2196 50.3621,60.0236 L50.3621,12.3116 C50.3621,11.9596 50.2231,11.6236 49.9741,11.3746 Z" id="Fill-4" fill="#0B3B60" mask="url(#mask-2)"></path>
                </g>
                <mask id="mask-4" fill="white">
                    <use xlink:href="#path-3"></use>
                </mask>
                <g id="Clip-8"></g>
                <polygon id="Fill-7" fill="#0B3B60" mask="url(#mask-4)" points="7.952 32.191 43.056 32.191 43.056 29.541 7.952 29.541"></polygon>
                <polygon id="Fill-9" fill="#0B3B60" mask="url(#mask-4)" points="7.952 37.43 43.056 37.43 43.056 34.78 7.952 34.78"></polygon>
                <polygon id="Fill-10" fill="#0B3B60" mask="url(#mask-4)" points="7.952 42.669 43.056 42.669 43.056 40.019 7.952 40.019"></polygon>
                <polygon id="Fill-11" fill="#0B3B60" mask="url(#mask-4)" points="7.952 47.907 43.056 47.907 43.056 45.257 7.952 45.257"></polygon>
                <path d="M10.6023,56.0499 C10.6023,56.0499 8.1813,61.0499 11.5153,57.3829 C14.8483,53.7169 15.9033,52.1189 15.9033,52.1189 C15.9033,52.1189 14.0153,57.3829 18.8483,58.0499 C23.6813,58.7169 21.3483,54.8829 23.5153,53.5499 C25.6813,52.2169 20.6813,52.6289 26.6813,55.4229" id="Stroke-12" stroke="#87D2F3" mask="url(#mask-4)"></path>
            </g>
        </g>
    </g>
</svg>