<svg width="55px" height="57px" viewBox="0 0 55 57" version="1.1" xmlns="http://www.w3.org/2000/svg" xmlns:xlink="http://www.w3.org/1999/xlink">
    <!-- Generator: Sketch 51.2 (57519) - http://www.bohemiancoding.com/sketch -->
    <title></title>
    <desc></desc>
    <defs></defs>
    <g id="Wireframes" stroke="none" stroke-width="1" fill="none" fill-rule="evenodd">
        <g id="Home" transform="translate(-819.000000, -683.000000)" fill-rule="nonzero">
            <g id="chart" transform="translate(819.000000, 683.000000)">
                <path d="M11.2584024,31.0919122 C10.8100914,30.9086713 10.2938306,31.0093762 9.95036922,31.3471643 L6.00005718,35.2397587 L2.04963264,31.3471643 C1.58163417,30.8850738 0.821811666,30.8841875 0.352575706,31.3450593 C0.126338948,31.567297 -0.000560636098,31.8691902 1.86205696e-06,32.1838239 L1.86205696e-06,55.8182404 C1.86205696e-06,56.4708837 0.5373001,57 1.20003543,57 L10.7999664,57 C11.4627018,57 12,56.4708837 12,55.8182404 L12,32.1838239 C12,31.7056694 11.7071635,31.2745991 11.2584024,31.0919122 Z" id="Shape" fill="#64B5F6"></path>
                <path d="M21.8496525,21.3513276 C21.3810916,20.8828908 20.6214941,20.8828908 20.1528206,21.3513276 L15.3527988,26.1512301 C15.1270121,26.3763363 15.0001125,26.6819902 15,27.0008062 L15,55.7999963 C15,56.4627151 15.5372982,57 16.2000336,57 L25.7999646,57 C26.4626999,57 26.9999981,56.4627151 26.9999981,55.7999963 L26.9999981,27.0008062 C27.0005606,26.6823277 26.874561,26.3766738 26.6495618,26.1512301 L21.8496525,21.3513276 Z" id="Shape" fill="#42A5F5"></path>
                <path d="M35.8496525,16.3444397 C35.3810916,15.8851868 34.6214941,15.8851868 34.1528206,16.3444397 L29.3527988,21.0502377 C29.1270121,21.2709305 29.0001125,21.5705919 29,21.8831574 L29,54.8235229 C29,55.4732489 29.5372982,56 30.2000336,56 L39.7999646,56 C40.4626999,56 40.9999981,55.4732489 40.9999981,54.8235229 L40.9999981,21.8831574 C41.0005606,21.5709228 40.874561,21.2712614 40.6495618,21.0502377 L35.8496525,16.3444397 Z" id="Shape" fill="#2196F3"></path>
                <path d="M54.6496743,14.7142078 L52.2497201,12.3458277 C52.0242709,12.1238997 51.7186094,11.9994468 51.400123,12.0000019 L49.0000562,12.0000019 C48.6815698,11.9994468 48.3759084,12.1237886 48.1504592,12.3458277 L43.3504382,17.0826989 C43.1255514,17.3051821 42.9994394,17.6068222 43.0000019,17.9211185 L43.0000019,55.8157545 C43.0000019,56.4697706 43.5373,57 44.2000352,57 L53.7999647,57 C54.4627,57 54.9999981,56.4697706 54.9999981,55.8157545 L54.9999981,15.5526274 C55.0005606,15.2383311 54.8745611,14.936691 54.6496743,14.7142078 Z" id="Shape" fill="#1976D2"></path>
                <path d="M53.8039676,2.12333049e-06 L46.6279973,2.12333049e-06 C45.9674717,-0.00122750301 45.4310679,0.531759623 45.4298345,1.19028042 C45.4292739,1.50774758 45.5557504,1.81235956 45.7812328,2.0365987 L48.5248081,4.76949913 L39.452027,13.8147423 L35.5147739,9.88709217 C35.0477752,9.42162271 34.2907104,9.42162271 33.8235996,9.88709217 L25.0999743,18.5842393 L21.1627212,14.6565892 C20.6957226,14.1911197 19.9386577,14.1911197 19.4715469,14.6565892 L5.9641283,28.1231215 L2.02687523,24.1954714 C1.55180357,23.7379386 0.794626585,23.7511292 0.33570086,24.2247589 C-0.111900287,24.6868748 -0.111900287,25.4193967 0.33570086,25.8814009 L5.11971842,30.6508979 C5.58671712,31.1163674 6.34378198,31.1163674 6.8108928,30.6508979 L20.3160689,17.186713 L24.2533219,21.1120157 C24.7203206,21.5774851 25.4773855,21.5774851 25.9444963,21.1120157 L34.6680094,12.4173278 L38.6052625,16.3426305 C39.0722612,16.8080999 39.8293261,16.8080999 40.2964369,16.3426305 L50.2159824,6.45554041 L52.9572031,9.18844084 C53.1815643,9.41279176 53.4862066,9.53888435 53.8039676,9.53899613 C53.9608298,9.53933149 54.1161223,9.50847904 54.2608751,9.44833914 C54.7081398,9.26400697 54.9998879,8.82916638 55,8.34659394 L55,1.19240432 C54.9998879,0.533883523 54.4644932,2.12333049e-06 53.8039676,2.12333049e-06 Z" id="Shape" fill="#455A64"></path>
            </g>
        </g>
    </g>
</svg>