<svg width="64px" height="64px" viewBox="0 0 64 64" version="1.1" xmlns="http://www.w3.org/2000/svg" xmlns:xlink="http://www.w3.org/1999/xlink">
    <!-- Generator: Sketch 51.3 (57544) - http://www.bohemiancoding.com/sketch -->
    <title></title>
    <desc></desc>
    <defs></defs>
    <g id="Page-1" stroke="none" stroke-width="1" fill="none" fill-rule="evenodd">
        <g id="enroll-online-banking">
            <path d="M18.67,61.33 C18.6673348,61.6844674 18.8062819,62.0253328 19.0559947,62.2769232 C19.3057076,62.5285135 19.6455226,62.67001 20,62.67 L44,62.67 C44.3544774,62.67001 44.6942924,62.5285135 44.9440053,62.2769232 C45.1937181,62.0253328 45.3326652,61.6844674 45.33,61.33 L45.3300376,57.33 L18.6699624,57.33 L18.67,61.33 Z" id="Shape" fill="#87D2F3" fill-rule="nonzero"></path>
            <path d="M60,0 L4,0 C1.790861,-1.3527075e-16 2.705415e-16,1.790861 0,4 L0,44 C2.705415e-16,46.209139 1.790861,48 4,48 L21.33,48 L21.33,56 L18.67,56 C17.9338262,55.9999795 17.3354938,56.5938467 17.33,57.33 L17.33,61.33 L14.67,61.33 L14.67,64 L49.33,64 L49.33,61.33 L46.67,61.33 L46.67,57.33 C46.6645062,56.5938467 46.0661738,55.9999795 45.33,56 L42.67,56 L42.67,48 L60,48 C62.209139,48 64,46.209139 64,44 L64,4 C64,1.790861 62.209139,1.3527075e-16 60,0 Z M44,58.67 L44,61.33 L20,61.33 L20,58.67 L44,58.67 Z M61.33,32 L61.33,44 C61.3326888,44.3535553 61.1934277,44.6934105 60.9434191,44.9434191 C60.6934105,45.1934277 60.3535553,45.3326888 60,45.33 L4,45.33 C3.64644466,45.3326888 3.30658949,45.1934277 3.05658088,44.9434191 C2.80657227,44.6934105 2.66731125,44.3535553 2.67,44 L2.67,4 C2.66731125,3.64644466 2.80657227,3.30658949 3.05658088,3.05658088 C3.30658949,2.80657227 3.64644466,2.66731125 4,2.67 L60,2.67 C60.3535553,2.66731125 60.6934105,2.80657227 60.9434191,3.05658088 C61.1934277,3.30658949 61.3326888,3.64644466 61.33,4 L61.33,32 Z" id="Shape" fill="#0B3B60" fill-rule="nonzero"></path>
            <path d="M9.33,34.67 L9.33,9.33 L28,9.33 L28,6.67 L8,6.67 C7.64644466,6.66731125 7.30658949,6.80657227 7.05658088,7.05658088 C6.80657227,7.30658949 6.66731125,7.64644466 6.67,8 L6.66996178,37.33 L38.67,37.33 L38.67,34.67 L9.33,34.67 Z" id="Shape" fill="#0B3B60" fill-rule="nonzero"></path>
            <path d="M53.67,34.67 L53.67,9.33 L25,9.33 L25,6.67 L55,6.67 C55.3535553,6.66731125 55.6934105,6.80657227 55.9434191,7.05658088 C56.1934277,7.30658949 56.3326888,7.64644466 56.33,8 L56.3300382,37.33 L24.33,37.33 L24.33,34.67 L53.67,34.67 Z" id="Shape" fill="#0B3B60" fill-rule="nonzero"></path>
            <rect id="Rectangle-path" fill="#87D2F3" fill-rule="nonzero" x="13.33" y="18.67" width="2.67" height="2.67"></rect>
            <rect id="Rectangle-path" fill="#87D2F3" fill-rule="nonzero" x="18.67" y="18.67" width="2.67" height="2.67"></rect>
            <rect id="Rectangle-path" fill="#87D2F3" fill-rule="nonzero" x="13.33" y="13.33" width="12" height="2.67"></rect>
            <path d="M14.42,29.86 C14.42,29.86 12,34.86 15.33,31.19 C16.9106733,29.5380258 18.3773785,27.7806524 19.72,25.93 C19.72,25.93 17.83,31.19 22.72,31.86 C27.61,32.53 25.22,28.69 27.38,27.36 C29.54,26.03 24.55,26.44 30.55,29.23" id="Shape" stroke="#87D2F3"></path>
        </g>
    </g>
</svg>