<svg width="64px" height="64px" viewBox="0 0 64 64" version="1.1" xmlns="http://www.w3.org/2000/svg" xmlns:xlink="http://www.w3.org/1999/xlink">
    <title></title>
    <desc></desc>
    <defs></defs>
    <g id="Page-1" stroke="none" stroke-width="1" fill="none" fill-rule="evenodd">
        <g id="online-banking" transform="translate(0.000000, -1.000000)" fill-rule="nonzero">
            <path d="M18.67,62.33 C18.6673348,62.6844674 18.8062819,63.0253328 19.0559947,63.2769232 C19.3057076,63.5285135 19.6455226,63.67001 20,63.67 L44,63.67 C44.3544774,63.67001 44.6942924,63.5285135 44.9440053,63.2769232 C45.1937181,63.0253328 45.3326652,62.6844674 45.33,62.33 L45.3300376,58.33 L18.6699624,58.33 L18.67,62.33 Z" id="Shape" fill="#87D2F3"></path>
            <path d="M61.33,45 C61.3326888,45.3535553 61.1934277,45.6934105 60.9434191,45.9434191 C60.6934105,46.1934277 60.3535553,46.3326888 60,46.33 L4,46.33 C3.64644466,46.3326888 3.30658949,46.1934277 3.05658088,45.9434191 C2.80657227,45.6934105 2.66731125,45.3535553 2.67,45 L2.67,5 C2.66731125,4.64644466 2.80657227,4.30658949 3.05658088,4.05658088 C3.30658949,3.80657227 3.64644466,3.66731125 4,3.67 L32,3.67 L32,1 L4,1 C1.790861,1 2.705415e-16,2.790861 0,5 L0,45 C2.705415e-16,47.209139 1.790861,49 4,49 L21.33,49 L21.33,57 L18.67,57 C17.9338262,56.9999795 17.3354938,57.5938467 17.33,58.33 L17.33,62.33 L14.67,62.33 L14.67,65 L49.33,65 L49.33,62.33 L46.67,62.33 L46.67,58.33 C46.6645062,57.5938467 46.0661738,56.9999795 45.33,57 L42.67,57 L42.67,49 L60,49 C62.209139,49 64,47.209139 64,45 L64,33 L61.33,33 L61.33,45 Z M44,62.33 L20,62.33 L20,59.67 L44,59.67 L44,62.33 Z M40,57 L24,57 L24,49 L40,49 L40,57 Z" id="Shape" fill="#0B3B60"></path>
            <path d="M9.33,35.67 L9.33,10.33 L28,10.33 L28,7.67 L8,7.67 C7.64644466,7.66731125 7.30658949,7.80657227 7.05658088,8.05658088 C6.80657227,8.30658949 6.66731125,8.64644466 6.67,9 L6.66996178,38.33 L38.67,38.33 L38.67,35.67 L9.33,35.67 Z" id="Shape" fill="#0B3B60"></path>
            <path d="M46.67,35.67 C56.2466176,35.67 64.01,27.9066176 64.01,18.33 C64.01,8.75338244 56.2466176,0.99 46.67,0.99 C37.0933824,0.99 29.33,8.75338244 29.33,18.33 C29.3273451,22.9296673 31.1533801,27.3417069 34.4058366,30.5941634 C37.6582931,33.8466199 42.0703327,35.6726549 46.67,35.67 Z M46.67,3.67 C52.6043708,3.67000138 57.9542167,7.2453151 60.2242668,12.7283462 C62.4943169,18.2113773 61.2373801,24.5219897 57.0397157,28.7167926 C52.8420514,32.9115955 46.5305834,34.1642289 41.0491015,31.8904405 C35.5676196,29.6166521 31.9959548,24.2643695 32,18.33 C31.9999991,14.440193 33.545903,10.7098484 36.2973495,7.96027745 C39.048796,5.2107065 42.7801939,3.66734665 46.67,3.67 Z" id="Shape" fill="#87D2F3"></path>
            <path d="M44,25 L45.33,25 L45.33,27.67 L48,27.67 L48,25 L49.33,25 C50.0389433,25.0026702 50.7196208,24.722225 51.2209229,24.2209229 C51.722225,23.7196208 52.0026702,23.0389433 52,22.33 L52,19.67 C52.0026702,18.9610567 51.722225,18.2803792 51.2209229,17.7790771 C50.7196208,17.277775 50.0389433,16.9973298 49.33,17 L44,17 L44,14.33 L49.33,14.33 L49.33,15.67 L52,15.67 L52,14.33 C52.000005,13.6227881 51.7183835,12.9446868 51.2173718,12.4455516 C50.7163602,11.9464164 50.0372069,11.6673413 49.33,11.67 L48,11.67 L48,9 L45.33,9 L45.33,11.67 L44,11.67 C42.5292961,11.6699897 41.3355083,12.8593065 41.33,14.33 L41.33,17 C41.3354836,18.4723229 42.5276771,19.6645164 44,19.67 L49.33,19.67 L49.33,22.33 L44,22.33 L44,21 L41.33,21 L41.33,22.33 C41.33,23.038128 41.6113028,23.717253 42.1120249,24.2179751 C42.612747,24.7186972 43.291872,25 44,25 Z" id="Shape" fill="#0B3B60"></path>
            <path d="M13.33,31.67 C13.3354938,32.4061533 13.9338262,33.0000205 14.67,33 L29.33,33 L29.33,30.33 L16,30.33 L16,27.67 L26.67,27.67 L26.67,25 L14.67,25 C13.9338262,24.9999795 13.3354938,25.5938467 13.33,26.33 L13.33,31.67 Z" id="Shape" fill="#87D2F3"></path>
            <rect id="Rectangle-path" fill="#87D2F3" x="13.33" y="19.67" width="2.67" height="2.67"></rect>
            <rect id="Rectangle-path" fill="#87D2F3" x="18.67" y="19.67" width="2.67" height="2.67"></rect>
            <rect id="Rectangle-path" fill="#87D2F3" x="13.33" y="14.33" width="12" height="2.67"></rect>
        </g>
    </g>
</svg>