<svg width="40px" height="64px" viewBox="0 0 40 64" version="1.1" xmlns="http://www.w3.org/2000/svg" xmlns:xlink="http://www.w3.org/1999/xlink">
    <title></title>
    <desc></desc>
    <defs></defs>
    <g id="Page-1" stroke="none" stroke-width="1" fill="none" fill-rule="evenodd">
        <g id="outgoing-cell-call" fill-rule="nonzero">
            <path d="M38.67,6.67 L38.67,9.33 L1.33,9.33 L1.33,6.67 C1.33,3.72079944 3.72079944,1.33 6.67,1.33 L33.33,1.33 C36.2792006,1.33 38.67,3.72079944 38.67,6.67 Z" id="Shape" fill="#87D2F3"></path>
            <path d="M38.67,54.67 L38.67,57.33 C38.67,60.2792006 36.2792006,62.67 33.33,62.67 L6.67,62.67 C3.72079944,62.67 1.33,60.2792006 1.33,57.33 L1.33,54.67 L38.67,54.67 Z" id="Shape" fill="#87D2F3"></path>
            <path d="M33.33,32 C33.33,39.3619557 27.3619557,45.33 20,45.33 C12.6380443,45.33 6.67,39.3619557 6.67,32 C6.67,24.6380443 12.6380443,18.67 20,18.67 C27.3619557,18.67 33.33,24.6380443 33.33,32 Z" id="Shape" fill="#87D2F3"></path>
            <path d="M33.33,0 L6.67,0 C2.98626072,-1.86147284e-15 1.77635684e-15,2.98626072 0,6.67 L0,57.33 C0,59.098994 0.702730125,60.7955346 1.95359777,62.0464022 C3.20446541,63.2972699 4.90100601,64 6.67,64 L33.33,64 C37.0137393,64 40,61.0137393 40,57.33 L40,6.67 C40,2.98626072 37.0137393,2.25563976e-16 33.33,0 Z M6.67,2.67 L33.33,2.67 C35.539139,2.67 37.33,4.460861 37.33,6.67 L37.33,8 L2.67,8 L2.67,6.67 C2.67,4.460861 4.460861,2.67 6.67,2.67 Z M37.33,10.67 L37.33,53.33 L2.67,53.33 L2.67,10.67 L37.33,10.67 Z M33.33,61.33 L6.67,61.33 C4.460861,61.33 2.67,59.539139 2.67,57.33 L2.67,56 L37.33,56 L37.33,57.33 C37.33,59.539139 35.539139,61.33 33.33,61.33 Z" id="Shape" fill="#0B3B60"></path>
            <path d="M27,27.5 C26.8838887,27.3070766 26.673674,27.1907526 26.4485417,27.1948463 C26.2234095,27.1989399 26.0175626,27.3228292 25.9085417,27.5198463 C25.7995208,27.7168633 25.8038887,27.9570766 25.92,28.15 L27.72,31.15 L19.78,31.15 C19.4304065,31.1499573 19.1454624,31.4304491 19.14,31.78 C19.14,32.1334622 19.4265378,32.42 19.78,32.42 L27.73,32.42 L25.93,35.42 C25.8417069,35.5630178 25.8142228,35.7353873 25.8536604,35.8987716 C25.893098,36.062156 25.9961872,36.2030077 26.14,36.29 C26.2401797,36.3484784 26.3540023,36.3795209 26.47,36.38 C26.7043953,36.3639831 26.9096014,36.2168543 27,36 L29.58,31.73 L27,27.5 Z" id="Shape" fill="#0B3B60"></path>
            <path d="M23.61,41.76 L20.71,36.16 L19,37 C17.16,37.9 13.4,30.55 15.2,29.58 L16.92,28.74 L14,23.1 L12.3,24 C10.95,24.71 10.39,26.2 10.41,28.05 C10.48,33.75 16,42.92 20.57,42.9 C21.0184742,42.892143 21.4607058,42.7934913 21.87,42.61 L23.61,41.76 Z" id="Shape" fill="#003764"></path>
        </g>
    </g>
</svg>