<svg width="24px" height="32px" viewBox="0 0 24 32" version="1.1" xmlns="http://www.w3.org/2000/svg" xmlns:xlink="http://www.w3.org/1999/xlink">
    <title></title>
    <desc></desc>
    <defs></defs>
    <g id="Symbols" stroke="none" stroke-width="1" fill="none" fill-rule="evenodd">
        <g id="Footer" transform="translate(-420.000000, -13.000000)" fill="#FFFFFF" fill-rule="nonzero">
            <g id="Group" transform="translate(420.000000, 11.000000)">
                <g id="Group-2" transform="translate(0.000000, 2.000000)">
                    <g id="iconmonstr-phone-3" transform="translate(0.000000, 0.210526)">
                        <path d="M19.8778839,30.1661569 L18.3459014,31.0319569 C9.38386797,35.7964886 -6.15811376,8.01325549 2.57791051,2.76319155 L4.04825415,1.92502345 L8.81756095,10.4343376 L7.35492216,11.2659267 C4.70059875,12.9041045 10.8991566,24.0384507 13.6202555,22.5094847 L15.1124295,21.6647376 L19.8778839,30.1661569 Z M7.28301016,0 L5.12565006,1.28291036 L9.89495685,9.79090872 L12.0536011,8.50799836 L7.28301016,0 Z M18.3433331,19.7331351 L16.185973,21.0160454 L20.9552798,29.5253596 L23.1139241,28.2424492 L18.3433331,19.7331351 Z" id="Shape"></path>
                    </g>
                </g>
            </g>
        </g>
    </g>
</svg>